
[INFO ] 2019-06-16 12:11:39.569 CustomListener:26 - ------------------TEST START---------------------- 
[INFO ] 2019-06-16 12:11:39.587 CustomListener:27 - TEST STARTED in time: Sun Jun 16 12:11:39 EEST 2019
[INFO ] 2019-06-16 12:11:39.844 AddDeleteApiTest:65 - .....Add file to storage soap positive test...
[INFO ] 2019-06-16 12:11:44.421 AddDeleteApiTest:70 - Size of storage before file adding 3
[INFO ] 2019-06-16 12:11:44.593 AddDeleteApiTest:72 - Added file to storage: UserFile{name='letter to grandma', size=400, type=WKS}
[INFO ] 2019-06-16 12:11:44.612 AddDeleteApiTest:75 - Size of storage after file adding 4
[INFO ] 2019-06-16 12:11:44.666 CustomListener:40 -  Result : SUCCESS : addFileToStorageSoap
[INFO ] 2019-06-16 12:11:44.939 AddDeleteApiTest:35 - ....Try to add files with no-acceptable data....
[DEBUG] 2019-06-16 12:11:49.403 AddDeleteApiTest:44 -  File was not added, exception message: HTTP response code 406 instead of 200
[INFO ] 2019-06-16 12:11:49.447 AddDeleteApiTest:49 - Size of storage before operation: 3 = size of storage after operation 3, file with size: 1100 was not added
[INFO ] 2019-06-16 12:11:49.449 CustomListener:40 -  Result : SUCCESS : addFilesNegativeRest
[INFO ] 2019-06-16 12:11:49.463 AddDeleteApiTest:35 - ....Try to add files with no-acceptable data....
[DEBUG] 2019-06-16 12:11:49.515 AddDeleteApiTest:44 -  File was not added, exception message: HTTP response code 406 instead of 200
[INFO ] 2019-06-16 12:11:49.536 AddDeleteApiTest:49 - Size of storage before operation: 3 = size of storage after operation 3, file with size: 2100 was not added
[INFO ] 2019-06-16 12:11:49.537 CustomListener:40 -  Result : SUCCESS : addFilesNegativeRest
[INFO ] 2019-06-16 12:11:49.543 AddDeleteApiTest:35 - ....Try to add files with no-acceptable data....
[DEBUG] 2019-06-16 12:11:49.575 AddDeleteApiTest:44 -  File was not added, exception message: HTTP response code 406 instead of 200
[INFO ] 2019-06-16 12:11:49.593 AddDeleteApiTest:49 - Size of storage before operation: 3 = size of storage after operation 3, file with size: 2100 was not added
[INFO ] 2019-06-16 12:11:49.594 CustomListener:40 -  Result : SUCCESS : addFilesNegativeRest
[INFO ] 2019-06-16 12:11:49.601 AddDeleteApiTest:55 - ....Add files with acceptable data rest....
[INFO ] 2019-06-16 12:11:49.619 AddDeleteApiTest:59 - File: UserFile{name='Data types', size=860, type=DOC} was added
[INFO ] 2019-06-16 12:11:49.968 CustomListener:40 -  Result : SUCCESS : addFilesPositiveRest
[INFO ] 2019-06-16 12:11:49.981 AddDeleteApiTest:55 - ....Add files with acceptable data rest....
[INFO ] 2019-06-16 12:11:49.993 AddDeleteApiTest:59 - File: UserFile{name='Data_storage', size=60, type=PDF} was added
[INFO ] 2019-06-16 12:11:50.019 CustomListener:40 -  Result : SUCCESS : addFilesPositiveRest
[INFO ] 2019-06-16 12:11:50.025 AddDeleteApiTest:55 - ....Add files with acceptable data rest....
[INFO ] 2019-06-16 12:11:50.042 AddDeleteApiTest:59 - File: UserFile{name='MyData', size=999, type=PDF} was added
[INFO ] 2019-06-16 12:11:50.077 CustomListener:40 -  Result : SUCCESS : addFilesPositiveRest
[INFO ] 2019-06-16 12:11:50.083 AddDeleteApiTest:55 - ....Add files with acceptable data rest....
[INFO ] 2019-06-16 12:11:50.094 AddDeleteApiTest:59 - File: UserFile{name='Festivalle', size=111, type=DOC} was added
[INFO ] 2019-06-16 12:11:50.122 CustomListener:40 -  Result : SUCCESS : addFilesPositiveRest
[INFO ] 2019-06-16 12:11:50.128 AddDeleteApiTest:55 - ....Add files with acceptable data rest....
[INFO ] 2019-06-16 12:11:50.142 AddDeleteApiTest:59 - File: UserFile{name='MyDoca', size=11, type=DOC} was added
[INFO ] 2019-06-16 12:11:50.177 CustomListener:40 -  Result : SUCCESS : addFilesPositiveRest
[INFO ] 2019-06-16 12:11:50.183 AddDeleteApiTest:83 - .......Delete file from storage rest-test......
[INFO ] 2019-06-16 12:11:50.210 AddDeleteApiTest:88 - Removed file with name: Validation form
[INFO ] 2019-06-16 12:11:50.211 AddDeleteApiTest:91 - Looking for deleted file...
[INFO ] 2019-06-16 12:11:50.233 AddDeleteApiTest:95 - Response: 404 Not Found, searched file was deleted
[INFO ] 2019-06-16 12:11:50.234 CustomListener:40 -  Result : SUCCESS : deleteFileRest
[INFO ] 2019-06-16 12:11:50.240 AddDeleteApiTest:101 - ......Delete file from storage soap-test....
[INFO ] 2019-06-16 12:11:50.413 AddDeleteApiTest:106 - Removed file with name: Validation form
[INFO ] 2019-06-16 12:11:50.414 AddDeleteApiTest:109 - Looking for deleted file...
[INFO ] 2019-06-16 12:11:51.545 AddDeleteApiTest:113 - Response:  There is no file with  such name, searched file was deleted
[INFO ] 2019-06-16 12:11:51.545 CustomListener:40 -  Result : SUCCESS : deleteFileSoap
[INFO ] 2019-06-16 12:11:51.865 SearchApiTest:129 - ....Add file to storage must throw SoapServiceException test.....
[INFO ] 2019-06-16 12:11:51.969 CustomListener:40 -  Result : SUCCESS : addFileToStorageShouldThrowExcSoap
[INFO ] 2019-06-16 12:11:51.980 SearchApiTest:56 - ....Get all files from storage rest test.....
[INFO ] 2019-06-16 12:11:52.001 SearchApiTest:61 - Got all files from storage: [UserFile{name='Calendar', size=23, type=DOC}, UserFile{name='My planner', size=180, type=PDF}, UserFile{name='Trip-plan', size=100, type=TXT}, UserFile{name='laptop configuration', size=500, type=ODT}, UserFile{name='my birthday party menu', size=766, type=ODT}, UserFile{name='salary report', size=89, type=ODT}]
[INFO ] 2019-06-16 12:11:52.002 CustomListener:40 -  Result : SUCCESS : getAllFilesFromStorageRest
[INFO ] 2019-06-16 12:11:52.008 SearchApiTest:44 - ....Get all files from storage soap test.....
[INFO ] 2019-06-16 12:11:52.119 SearchApiTest:48 - Got all files from storage: [UserFile{name='Calendar', size=23, type=DOC}, UserFile{name='My planner', size=180, type=PDF}, UserFile{name='Trip-plan', size=100, type=TXT}, UserFile{name='laptop configuration', size=500, type=ODT}, UserFile{name='my birthday party menu', size=766, type=ODT}, UserFile{name='salary report', size=89, type=ODT}]
[INFO ] 2019-06-16 12:11:52.120 CustomListener:40 -  Result : SUCCESS : getAllFilesFromStorageSoap
[INFO ] 2019-06-16 12:11:52.126 SearchApiTest:97 - ....Search file by name test....
[INFO ] 2019-06-16 12:11:52.261 SearchApiTest:102 - Add file: UserFile{name='Validation form', size=20, type=ODT} for testing rest search methods
[INFO ] 2019-06-16 12:11:52.291 SearchApiTest:105 - File is found
[INFO ] 2019-06-16 12:11:52.307 CustomListener:40 -  Result : SUCCESS : searchByNameSoapAndRest
[INFO ] 2019-06-16 12:11:52.312 SearchApiTest:83 - ....Search files by type rest test....
[INFO ] 2019-06-16 12:11:52.355 SearchApiTest:89 - Find: 3 files with ODT type
[INFO ] 2019-06-16 12:11:52.355 CustomListener:40 -  Result : SUCCESS : searchByTypeRest
[INFO ] 2019-06-16 12:11:52.362 SearchApiTest:70 - ....Search files by type soap test...
[INFO ] 2019-06-16 12:11:52.474 SearchApiTest:76 - Find: 3 files with ODT type
[INFO ] 2019-06-16 12:11:52.475 CustomListener:40 -  Result : SUCCESS : searchByTypeSoap
[INFO ] 2019-06-16 12:11:52.563 CustomListener:40 -  Result : SUCCESS : searchNonPresentFileShouldThrowExcRest
[INFO ] 2019-06-16 12:11:52.568 SearchApiTest:120 - ....Search non present file in storage.......
[INFO ] 2019-06-16 12:11:52.804 CustomListener:40 -  Result : SUCCESS : searchNonPresentFileShouldThrowExcSoap
[INFO ] 2019-06-16 12:11:53.077 CustomListener:32 - TEST FINISHED in time: Sun Jun 16 12:11:53 EEST 2019
[INFO ] 2019-06-16 12:11:53.078 CustomListener:33 - ------------------TEST FINISH---------------------- 
[INFO ] 2019-06-16 12:11:53.079 CustomListener:53 - Start read logs...........
[INFO ] 2019-06-16 12:16:30.244 CustomListener:26 - ------------------TEST START---------------------- 
[INFO ] 2019-06-16 12:16:30.261 CustomListener:27 - TEST STARTED in time: Sun Jun 16 12:16:30 EEST 2019
[INFO ] 2019-06-16 12:16:30.474 AddDeleteApiTest:65 - .....Add file to storage soap positive test...
[INFO ] 2019-06-16 12:16:31.816 AddDeleteApiTest:70 - Size of storage before file adding 3
[INFO ] 2019-06-16 12:16:31.841 AddDeleteApiTest:72 - Added file to storage: UserFile{name='letter to grandma', size=400, type=WKS}
[INFO ] 2019-06-16 12:16:31.851 AddDeleteApiTest:75 - Size of storage after file adding 4
[INFO ] 2019-06-16 12:16:31.870 CustomListener:40 -  Result : SUCCESS : addFileToStorageSoap
[INFO ] 2019-06-16 12:16:31.874 CustomListener:55 - Start read logs...........
[INFO ] 2019-06-16 12:16:32.164 AddDeleteApiTest:35 - ....Try to add files with no-acceptable data....
[DEBUG] 2019-06-16 12:16:35.275 AddDeleteApiTest:44 -  File was not added, exception message: HTTP response code 406 instead of 200
[INFO ] 2019-06-16 12:16:35.325 AddDeleteApiTest:49 - Size of storage before operation: 3 = size of storage after operation 3, file with size: 1100 was not added
[INFO ] 2019-06-16 12:16:35.327 CustomListener:40 -  Result : SUCCESS : addFilesNegativeRest
[INFO ] 2019-06-16 12:16:35.328 CustomListener:55 - Start read logs...........
[INFO ] 2019-06-16 12:16:35.347 AddDeleteApiTest:35 - ....Try to add files with no-acceptable data....
[DEBUG] 2019-06-16 12:16:35.393 AddDeleteApiTest:44 -  File was not added, exception message: HTTP response code 406 instead of 200
[INFO ] 2019-06-16 12:16:35.419 AddDeleteApiTest:49 - Size of storage before operation: 3 = size of storage after operation 3, file with size: 2100 was not added
[INFO ] 2019-06-16 12:16:35.420 CustomListener:40 -  Result : SUCCESS : addFilesNegativeRest
[INFO ] 2019-06-16 12:16:35.421 CustomListener:55 - Start read logs...........
[INFO ] 2019-06-16 12:16:35.431 AddDeleteApiTest:35 - ....Try to add files with no-acceptable data....
[DEBUG] 2019-06-16 12:16:35.507 AddDeleteApiTest:44 -  File was not added, exception message: HTTP response code 406 instead of 200
[INFO ] 2019-06-16 12:16:35.533 AddDeleteApiTest:49 - Size of storage before operation: 3 = size of storage after operation 3, file with size: 2100 was not added
[INFO ] 2019-06-16 12:16:35.534 CustomListener:40 -  Result : SUCCESS : addFilesNegativeRest
[INFO ] 2019-06-16 12:16:35.535 CustomListener:55 - Start read logs...........
[INFO ] 2019-06-16 12:16:35.544 AddDeleteApiTest:55 - ....Add files with acceptable data rest....
[INFO ] 2019-06-16 12:16:35.556 AddDeleteApiTest:59 - File: UserFile{name='Data types', size=860, type=DOC} was added
[INFO ] 2019-06-16 12:16:35.866 CustomListener:40 -  Result : SUCCESS : addFilesPositiveRest
[INFO ] 2019-06-16 12:16:35.866 CustomListener:55 - Start read logs...........
[INFO ] 2019-06-16 12:16:35.881 AddDeleteApiTest:55 - ....Add files with acceptable data rest....
[INFO ] 2019-06-16 12:16:35.900 AddDeleteApiTest:59 - File: UserFile{name='Data_storage', size=60, type=PDF} was added
[INFO ] 2019-06-16 12:16:35.941 CustomListener:40 -  Result : SUCCESS : addFilesPositiveRest
[INFO ] 2019-06-16 12:16:35.941 CustomListener:55 - Start read logs...........
[INFO ] 2019-06-16 12:16:35.948 AddDeleteApiTest:55 - ....Add files with acceptable data rest....
[INFO ] 2019-06-16 12:16:35.962 AddDeleteApiTest:59 - File: UserFile{name='MyData', size=999, type=PDF} was added
[INFO ] 2019-06-16 12:16:35.993 CustomListener:40 -  Result : SUCCESS : addFilesPositiveRest
[INFO ] 2019-06-16 12:16:35.994 CustomListener:55 - Start read logs...........
[INFO ] 2019-06-16 12:16:36.000 AddDeleteApiTest:55 - ....Add files with acceptable data rest....
[INFO ] 2019-06-16 12:16:36.016 AddDeleteApiTest:59 - File: UserFile{name='Festivalle', size=111, type=DOC} was added
[INFO ] 2019-06-16 12:16:36.039 CustomListener:40 -  Result : SUCCESS : addFilesPositiveRest
[INFO ] 2019-06-16 12:16:36.039 CustomListener:55 - Start read logs...........
[INFO ] 2019-06-16 12:16:36.048 AddDeleteApiTest:55 - ....Add files with acceptable data rest....
[INFO ] 2019-06-16 12:16:36.059 AddDeleteApiTest:59 - File: UserFile{name='MyDoca', size=11, type=DOC} was added
[INFO ] 2019-06-16 12:16:36.092 CustomListener:40 -  Result : SUCCESS : addFilesPositiveRest
[INFO ] 2019-06-16 12:16:36.092 CustomListener:55 - Start read logs...........
[INFO ] 2019-06-16 12:16:36.100 AddDeleteApiTest:83 - .......Delete file from storage rest-test......
[INFO ] 2019-06-16 12:16:36.127 AddDeleteApiTest:88 - Removed file with name: Validation form
[INFO ] 2019-06-16 12:16:36.128 AddDeleteApiTest:91 - Looking for deleted file...
[INFO ] 2019-06-16 12:16:36.159 AddDeleteApiTest:95 - Response: 404 Not Found, searched file was deleted
[INFO ] 2019-06-16 12:16:36.160 CustomListener:40 -  Result : SUCCESS : deleteFileRest
[INFO ] 2019-06-16 12:16:36.160 CustomListener:55 - Start read logs...........
[INFO ] 2019-06-16 12:16:36.168 AddDeleteApiTest:101 - ......Delete file from storage soap-test....
[INFO ] 2019-06-16 12:16:36.350 AddDeleteApiTest:106 - Removed file with name: Validation form
[INFO ] 2019-06-16 12:16:36.350 AddDeleteApiTest:109 - Looking for deleted file...
[INFO ] 2019-06-16 12:16:36.458 AddDeleteApiTest:113 - Response:  There is no file with  such name, searched file was deleted
[INFO ] 2019-06-16 12:16:36.459 CustomListener:40 -  Result : SUCCESS : deleteFileSoap
[INFO ] 2019-06-16 12:16:36.459 CustomListener:55 - Start read logs...........
[INFO ] 2019-06-16 12:16:36.673 SearchApiTest:129 - ....Add file to storage must throw SoapServiceException test.....
[INFO ] 2019-06-16 12:16:36.722 CustomListener:40 -  Result : SUCCESS : addFileToStorageShouldThrowExcSoap
[INFO ] 2019-06-16 12:16:36.723 CustomListener:55 - Start read logs...........
[INFO ] 2019-06-16 12:16:36.738 SearchApiTest:56 - ....Get all files from storage rest test.....
[INFO ] 2019-06-16 12:16:36.765 SearchApiTest:61 - Got all files from storage: [UserFile{name='Calendar', size=23, type=DOC}, UserFile{name='My planner', size=180, type=PDF}, UserFile{name='Trip-plan', size=100, type=TXT}, UserFile{name='laptop configuration', size=500, type=ODT}, UserFile{name='my birthday party menu', size=766, type=ODT}, UserFile{name='salary report', size=89, type=ODT}]
[INFO ] 2019-06-16 12:16:36.766 CustomListener:40 -  Result : SUCCESS : getAllFilesFromStorageRest
[INFO ] 2019-06-16 12:16:36.767 CustomListener:55 - Start read logs...........
[INFO ] 2019-06-16 12:16:36.774 SearchApiTest:44 - ....Get all files from storage soap test.....
[INFO ] 2019-06-16 12:16:36.857 SearchApiTest:48 - Got all files from storage: [UserFile{name='Calendar', size=23, type=DOC}, UserFile{name='My planner', size=180, type=PDF}, UserFile{name='Trip-plan', size=100, type=TXT}, UserFile{name='laptop configuration', size=500, type=ODT}, UserFile{name='my birthday party menu', size=766, type=ODT}, UserFile{name='salary report', size=89, type=ODT}]
[INFO ] 2019-06-16 12:16:36.858 CustomListener:40 -  Result : SUCCESS : getAllFilesFromStorageSoap
[INFO ] 2019-06-16 12:16:36.858 CustomListener:55 - Start read logs...........
[INFO ] 2019-06-16 12:16:36.864 SearchApiTest:97 - ....Search file by name test....
[INFO ] 2019-06-16 12:16:36.963 SearchApiTest:102 - Add file: UserFile{name='Validation form', size=20, type=ODT} for testing rest search methods
[INFO ] 2019-06-16 12:16:36.984 SearchApiTest:105 - File is found
[INFO ] 2019-06-16 12:16:36.993 CustomListener:40 -  Result : SUCCESS : searchByNameSoapAndRest
[INFO ] 2019-06-16 12:16:36.993 CustomListener:55 - Start read logs...........
[INFO ] 2019-06-16 12:16:37.000 SearchApiTest:83 - ....Search files by type rest test....
[INFO ] 2019-06-16 12:16:37.028 SearchApiTest:89 - Find: 3 files with ODT type
[INFO ] 2019-06-16 12:16:37.029 CustomListener:40 -  Result : SUCCESS : searchByTypeRest
[INFO ] 2019-06-16 12:16:37.029 CustomListener:55 - Start read logs...........
[INFO ] 2019-06-16 12:16:37.039 SearchApiTest:70 - ....Search files by type soap test...
[INFO ] 2019-06-16 12:16:37.163 SearchApiTest:76 - Find: 3 files with ODT type
[INFO ] 2019-06-16 12:16:37.165 CustomListener:40 -  Result : SUCCESS : searchByTypeSoap
[INFO ] 2019-06-16 12:16:37.165 CustomListener:55 - Start read logs...........
[INFO ] 2019-06-16 12:16:37.188 CustomListener:40 -  Result : SUCCESS : searchNonPresentFileShouldThrowExcRest
[INFO ] 2019-06-16 12:16:37.189 CustomListener:55 - Start read logs...........
[INFO ] 2019-06-16 12:16:37.196 SearchApiTest:120 - ....Search non present file in storage.......
[INFO ] 2019-06-16 12:16:37.285 CustomListener:40 -  Result : SUCCESS : searchNonPresentFileShouldThrowExcSoap
[INFO ] 2019-06-16 12:16:37.285 CustomListener:55 - Start read logs...........
[INFO ] 2019-06-16 12:16:37.401 CustomListener:32 - TEST FINISHED in time: Sun Jun 16 12:16:37 EEST 2019
[INFO ] 2019-06-16 12:16:37.401 CustomListener:33 - ------------------TEST FINISH---------------------- 
[INFO ] 2019-06-16 12:21:00.586 CustomListener:26 - ------------------TEST START---------------------- 
[INFO ] 2019-06-16 12:21:00.604 CustomListener:27 - TEST STARTED in time: Sun Jun 16 12:21:00 EEST 2019
[INFO ] 2019-06-16 12:21:00.852 AddDeleteApiTest:65 - .....Add file to storage soap positive test...
[INFO ] 2019-06-16 12:21:02.130 AddDeleteApiTest:70 - Size of storage before file adding 3
[INFO ] 2019-06-16 12:21:02.156 AddDeleteApiTest:72 - Added file to storage: UserFile{name='letter to grandma', size=400, type=WKS}
[INFO ] 2019-06-16 12:21:02.166 AddDeleteApiTest:75 - Size of storage after file adding 4
[INFO ] 2019-06-16 12:21:02.186 CustomListener:40 -  Result : SUCCESS : addFileToStorageSoap
[INFO ] 2019-06-16 12:21:02.495 AddDeleteApiTest:35 - ....Try to add files with no-acceptable data....
[DEBUG] 2019-06-16 12:21:05.735 AddDeleteApiTest:44 -  File was not added, exception message: HTTP response code 406 instead of 200
[INFO ] 2019-06-16 12:21:05.762 AddDeleteApiTest:49 - Size of storage before operation: 3 = size of storage after operation 3, file with size: 1100 was not added
[INFO ] 2019-06-16 12:21:05.764 CustomListener:40 -  Result : SUCCESS : addFilesNegativeRest
[INFO ] 2019-06-16 12:21:05.786 AddDeleteApiTest:35 - ....Try to add files with no-acceptable data....
[DEBUG] 2019-06-16 12:21:05.834 AddDeleteApiTest:44 -  File was not added, exception message: HTTP response code 406 instead of 200
[INFO ] 2019-06-16 12:21:05.856 AddDeleteApiTest:49 - Size of storage before operation: 3 = size of storage after operation 3, file with size: 2100 was not added
[INFO ] 2019-06-16 12:21:05.857 CustomListener:40 -  Result : SUCCESS : addFilesNegativeRest
[INFO ] 2019-06-16 12:21:05.866 AddDeleteApiTest:35 - ....Try to add files with no-acceptable data....
[DEBUG] 2019-06-16 12:21:05.900 AddDeleteApiTest:44 -  File was not added, exception message: HTTP response code 406 instead of 200
[INFO ] 2019-06-16 12:21:05.921 AddDeleteApiTest:49 - Size of storage before operation: 3 = size of storage after operation 3, file with size: 2100 was not added
[INFO ] 2019-06-16 12:21:05.922 CustomListener:40 -  Result : SUCCESS : addFilesNegativeRest
[INFO ] 2019-06-16 12:21:05.931 AddDeleteApiTest:55 - ....Add files with acceptable data rest....
[INFO ] 2019-06-16 12:21:05.942 AddDeleteApiTest:59 - File: UserFile{name='Data types', size=860, type=DOC} was added
[INFO ] 2019-06-16 12:21:06.245 CustomListener:40 -  Result : SUCCESS : addFilesPositiveRest
[INFO ] 2019-06-16 12:21:06.258 AddDeleteApiTest:55 - ....Add files with acceptable data rest....
[INFO ] 2019-06-16 12:21:06.268 AddDeleteApiTest:59 - File: UserFile{name='Data_storage', size=60, type=PDF} was added
[INFO ] 2019-06-16 12:21:06.294 CustomListener:40 -  Result : SUCCESS : addFilesPositiveRest
[INFO ] 2019-06-16 12:21:06.318 AddDeleteApiTest:55 - ....Add files with acceptable data rest....
[INFO ] 2019-06-16 12:21:06.337 AddDeleteApiTest:59 - File: UserFile{name='MyData', size=999, type=PDF} was added
[INFO ] 2019-06-16 12:21:06.360 CustomListener:40 -  Result : SUCCESS : addFilesPositiveRest
[INFO ] 2019-06-16 12:21:06.374 AddDeleteApiTest:55 - ....Add files with acceptable data rest....
[INFO ] 2019-06-16 12:21:06.387 AddDeleteApiTest:59 - File: UserFile{name='Festivalle', size=111, type=DOC} was added
[INFO ] 2019-06-16 12:21:06.410 CustomListener:40 -  Result : SUCCESS : addFilesPositiveRest
[INFO ] 2019-06-16 12:21:06.417 AddDeleteApiTest:55 - ....Add files with acceptable data rest....
[INFO ] 2019-06-16 12:21:06.428 AddDeleteApiTest:59 - File: UserFile{name='MyDoca', size=11, type=DOC} was added
[INFO ] 2019-06-16 12:21:06.449 CustomListener:40 -  Result : SUCCESS : addFilesPositiveRest
[INFO ] 2019-06-16 12:21:06.459 AddDeleteApiTest:83 - .......Delete file from storage rest-test......
[INFO ] 2019-06-16 12:21:06.491 AddDeleteApiTest:88 - Removed file with name: Validation form
[INFO ] 2019-06-16 12:21:06.492 AddDeleteApiTest:91 - Looking for deleted file...
[INFO ] 2019-06-16 12:21:06.509 AddDeleteApiTest:95 - Response: 404 Not Found, searched file was deleted
[INFO ] 2019-06-16 12:21:06.510 CustomListener:40 -  Result : SUCCESS : deleteFileRest
[INFO ] 2019-06-16 12:21:06.517 AddDeleteApiTest:101 - ......Delete file from storage soap-test....
[INFO ] 2019-06-16 12:21:06.659 AddDeleteApiTest:106 - Removed file with name: Validation form
[INFO ] 2019-06-16 12:21:06.660 AddDeleteApiTest:109 - Looking for deleted file...
[INFO ] 2019-06-16 12:21:06.756 AddDeleteApiTest:113 - Response:  There is no file with  such name, searched file was deleted
[INFO ] 2019-06-16 12:21:06.757 CustomListener:40 -  Result : SUCCESS : deleteFileSoap
[INFO ] 2019-06-16 12:21:07.064 SearchApiTest:129 - ....Add file to storage must throw SoapServiceException test.....
[INFO ] 2019-06-16 12:21:07.146 CustomListener:40 -  Result : SUCCESS : addFileToStorageShouldThrowExcSoap
[INFO ] 2019-06-16 12:21:07.155 SearchApiTest:56 - ....Get all files from storage rest test.....
[INFO ] 2019-06-16 12:21:07.180 SearchApiTest:61 - Got all files from storage: [UserFile{name='Calendar', size=23, type=DOC}, UserFile{name='My planner', size=180, type=PDF}, UserFile{name='Trip-plan', size=100, type=TXT}, UserFile{name='laptop configuration', size=500, type=ODT}, UserFile{name='my birthday party menu', size=766, type=ODT}, UserFile{name='salary report', size=89, type=ODT}]
[INFO ] 2019-06-16 12:21:07.182 CustomListener:40 -  Result : SUCCESS : getAllFilesFromStorageRest
[INFO ] 2019-06-16 12:21:07.189 SearchApiTest:44 - ....Get all files from storage soap test.....
[INFO ] 2019-06-16 12:21:07.323 SearchApiTest:48 - Got all files from storage: [UserFile{name='Calendar', size=23, type=DOC}, UserFile{name='My planner', size=180, type=PDF}, UserFile{name='Trip-plan', size=100, type=TXT}, UserFile{name='laptop configuration', size=500, type=ODT}, UserFile{name='my birthday party menu', size=766, type=ODT}, UserFile{name='salary report', size=89, type=ODT}]
[INFO ] 2019-06-16 12:21:07.325 CustomListener:40 -  Result : SUCCESS : getAllFilesFromStorageSoap
[INFO ] 2019-06-16 12:21:07.339 SearchApiTest:97 - ....Search file by name test....
[INFO ] 2019-06-16 12:21:07.547 SearchApiTest:102 - Add file: UserFile{name='Validation form', size=20, type=ODT} for testing rest search methods
[INFO ] 2019-06-16 12:21:07.568 SearchApiTest:105 - File is found
[INFO ] 2019-06-16 12:21:07.577 CustomListener:40 -  Result : SUCCESS : searchByNameSoapAndRest
[INFO ] 2019-06-16 12:21:07.583 SearchApiTest:83 - ....Search files by type rest test....
[INFO ] 2019-06-16 12:21:07.610 SearchApiTest:89 - Find: 3 files with ODT type
[INFO ] 2019-06-16 12:21:07.611 CustomListener:40 -  Result : SUCCESS : searchByTypeRest
[INFO ] 2019-06-16 12:21:07.620 SearchApiTest:70 - ....Search files by type soap test...
[INFO ] 2019-06-16 12:21:07.708 SearchApiTest:76 - Find: 3 files with ODT type
[INFO ] 2019-06-16 12:21:07.710 CustomListener:40 -  Result : SUCCESS : searchByTypeSoap
[INFO ] 2019-06-16 12:21:07.729 CustomListener:40 -  Result : SUCCESS : searchNonPresentFileShouldThrowExcRest
[INFO ] 2019-06-16 12:21:07.735 SearchApiTest:120 - ....Search non present file in storage.......
[INFO ] 2019-06-16 12:21:07.833 CustomListener:40 -  Result : SUCCESS : searchNonPresentFileShouldThrowExcSoap
[INFO ] 2019-06-16 12:21:07.964 CustomListener:32 - TEST FINISHED in time: Sun Jun 16 12:21:07 EEST 2019
[INFO ] 2019-06-16 12:21:07.965 CustomListener:33 - ------------------TEST FINISH---------------------- 
[INFO ] 2019-06-16 12:58:43.641 CustomListener:26 - ------------------TEST START---------------------- 
[INFO ] 2019-06-16 12:58:43.664 CustomListener:27 - TEST STARTED in time: Sun Jun 16 12:58:43 EEST 2019
[INFO ] 2019-06-16 12:58:43.913 AddDeleteApiTest:102 - ......Delete file from storage soap-test....
[INFO ] 2019-06-16 12:58:45.516 AddDeleteApiTest:108 - Removed file with name: Validation form
[INFO ] 2019-06-16 12:58:45.516 AddDeleteApiTest:111 - Looking for deleted file...
[INFO ] 2019-06-16 12:58:45.614 AddDeleteApiTest:115 - Response:  There is no file with  such name, searched file was deleted
[INFO ] 2019-06-16 12:58:45.621 CustomListener:40 -  Result : SUCCESS : deleteFileSoap
[INFO ] 2019-06-16 12:58:45.992 CustomListener:32 - TEST FINISHED in time: Sun Jun 16 12:58:45 EEST 2019
[INFO ] 2019-06-16 12:58:45.993 CustomListener:33 - ------------------TEST FINISH---------------------- 
[INFO ] 2019-06-16 12:59:27.773 CustomListener:26 - ------------------TEST START---------------------- 
[INFO ] 2019-06-16 12:59:27.794 CustomListener:27 - TEST STARTED in time: Sun Jun 16 12:59:27 EEST 2019
[INFO ] 2019-06-16 12:59:28.144 AddDeleteApiTest:83 - .......Delete file from storage rest-test......
[INFO ] 2019-06-16 12:59:32.071 AddDeleteApiTest:89 - Removed file with name: Validation form
[INFO ] 2019-06-16 12:59:32.072 AddDeleteApiTest:92 - Looking for deleted file...
[INFO ] 2019-06-16 12:59:32.219 AddDeleteApiTest:96 - Response: 404 Not Found, searched file was deleted
[INFO ] 2019-06-16 12:59:32.225 CustomListener:40 -  Result : SUCCESS : deleteFileRest
[INFO ] 2019-06-16 12:59:32.415 CustomListener:32 - TEST FINISHED in time: Sun Jun 16 12:59:32 EEST 2019
[INFO ] 2019-06-16 12:59:32.416 CustomListener:33 - ------------------TEST FINISH---------------------- 
[INFO ] 2019-06-16 13:06:54.175 CustomListener:26 - ------------------TEST START---------------------- 
[INFO ] 2019-06-16 13:06:54.192 CustomListener:27 - TEST STARTED in time: Sun Jun 16 13:06:54 EEST 2019
[INFO ] 2019-06-16 13:06:54.479 AddDeleteApiTest:35 - ....Try to add files with no-acceptable data....
[DEBUG] 2019-06-16 13:06:57.450 AddDeleteApiTest:44 -  File was not added, exception message: HTTP response code 406 instead of 200
[INFO ] 2019-06-16 13:06:57.483 AddDeleteApiTest:49 - Size of storage before operation: 3 = size of storage after operation 3, file with size: 1100 was not added
[ERROR] 2019-06-16 13:06:57.510 CustomListener:47 - result : FAILURE ADDFILESNEGATIVEREST
[INFO ] 2019-06-16 13:06:57.801 AddDeleteApiTest:35 - ....Try to add files with no-acceptable data....
[DEBUG] 2019-06-16 13:06:57.868 AddDeleteApiTest:44 -  File was not added, exception message: HTTP response code 406 instead of 200
[INFO ] 2019-06-16 13:06:57.923 AddDeleteApiTest:49 - Size of storage before operation: 3 = size of storage after operation 3, file with size: 2100 was not added
[ERROR] 2019-06-16 13:06:57.969 CustomListener:47 - result : FAILURE ADDFILESNEGATIVEREST
[INFO ] 2019-06-16 13:06:57.995 AddDeleteApiTest:35 - ....Try to add files with no-acceptable data....
[DEBUG] 2019-06-16 13:06:58.090 AddDeleteApiTest:44 -  File was not added, exception message: HTTP response code 406 instead of 200
[INFO ] 2019-06-16 13:06:58.134 AddDeleteApiTest:49 - Size of storage before operation: 3 = size of storage after operation 3, file with size: 2100 was not added
[ERROR] 2019-06-16 13:06:58.173 CustomListener:47 - result : FAILURE ADDFILESNEGATIVEREST
[INFO ] 2019-06-16 13:06:58.215 CustomListener:32 - TEST FINISHED in time: Sun Jun 16 13:06:58 EEST 2019
[INFO ] 2019-06-16 13:06:58.216 CustomListener:33 - ------------------TEST FINISH---------------------- 
[INFO ] 2019-06-16 13:08:27.061 CustomListener:26 - ------------------TEST START---------------------- 
[INFO ] 2019-06-16 13:08:27.080 CustomListener:27 - TEST STARTED in time: Sun Jun 16 13:08:27 EEST 2019
[INFO ] 2019-06-16 13:08:27.367 AddDeleteApiTest:35 - ....Try to add files with no-acceptable data....
[DEBUG] 2019-06-16 13:08:30.303 AddDeleteApiTest:45 -  File was not added, exception message: HTTP response code 406 instead of 200
[INFO ] 2019-06-16 13:08:30.324 AddDeleteApiTest:50 - Size of storage before operation: 3 = size of storage after operation 3, file with size: 1100 was not added
[INFO ] 2019-06-16 13:08:30.330 CustomListener:40 -  Result : SUCCESS : addFilesNegativeRest
[INFO ] 2019-06-16 13:08:30.536 AddDeleteApiTest:35 - ....Try to add files with no-acceptable data....
[DEBUG] 2019-06-16 13:08:30.563 AddDeleteApiTest:45 -  File was not added, exception message: HTTP response code 406 instead of 200
[INFO ] 2019-06-16 13:08:30.577 AddDeleteApiTest:50 - Size of storage before operation: 3 = size of storage after operation 3, file with size: 2100 was not added
[INFO ] 2019-06-16 13:08:30.578 CustomListener:40 -  Result : SUCCESS : addFilesNegativeRest
[INFO ] 2019-06-16 13:08:30.587 AddDeleteApiTest:35 - ....Try to add files with no-acceptable data....
[DEBUG] 2019-06-16 13:08:30.612 AddDeleteApiTest:45 -  File was not added, exception message: HTTP response code 406 instead of 200
[INFO ] 2019-06-16 13:08:30.627 AddDeleteApiTest:50 - Size of storage before operation: 3 = size of storage after operation 3, file with size: 2100 was not added
[INFO ] 2019-06-16 13:08:30.628 CustomListener:40 -  Result : SUCCESS : addFilesNegativeRest
[INFO ] 2019-06-16 13:08:30.639 CustomListener:32 - TEST FINISHED in time: Sun Jun 16 13:08:30 EEST 2019
[INFO ] 2019-06-16 13:08:30.639 CustomListener:33 - ------------------TEST FINISH---------------------- 
[INFO ] 2019-06-16 13:09:37.744 CustomListener:26 - ------------------TEST START---------------------- 
[INFO ] 2019-06-16 13:09:37.765 CustomListener:27 - TEST STARTED in time: Sun Jun 16 13:09:37 EEST 2019
[INFO ] 2019-06-16 13:09:37.999 AddDeleteApiTest:35 - ....Try to add files with no-acceptable data....
[DEBUG] 2019-06-16 13:09:41.056 AddDeleteApiTest:45 -  File was not added, exception message: HTTP response code 406 instead of 200
[INFO ] 2019-06-16 13:09:41.077 AddDeleteApiTest:50 - Size of storage before operation: 3 = size of storage after operation 3, file with size: 1100 was not added
[INFO ] 2019-06-16 13:09:41.084 CustomListener:40 -  Result : SUCCESS : addFilesNegativeRest
[INFO ] 2019-06-16 13:09:41.306 AddDeleteApiTest:35 - ....Try to add files with no-acceptable data....
[DEBUG] 2019-06-16 13:09:41.334 AddDeleteApiTest:45 -  File was not added, exception message: HTTP response code 406 instead of 200
[INFO ] 2019-06-16 13:09:41.348 AddDeleteApiTest:50 - Size of storage before operation: 3 = size of storage after operation 3, file with size: 2100 was not added
[INFO ] 2019-06-16 13:09:41.350 CustomListener:40 -  Result : SUCCESS : addFilesNegativeRest
[INFO ] 2019-06-16 13:09:41.359 AddDeleteApiTest:35 - ....Try to add files with no-acceptable data....
[DEBUG] 2019-06-16 13:09:41.399 AddDeleteApiTest:45 -  File was not added, exception message: HTTP response code 406 instead of 200
[INFO ] 2019-06-16 13:09:41.421 AddDeleteApiTest:50 - Size of storage before operation: 3 = size of storage after operation 3, file with size: 2100 was not added
[INFO ] 2019-06-16 13:09:41.422 CustomListener:40 -  Result : SUCCESS : addFilesNegativeRest
[INFO ] 2019-06-16 13:09:41.432 CustomListener:32 - TEST FINISHED in time: Sun Jun 16 13:09:41 EEST 2019
[INFO ] 2019-06-16 13:09:41.447 CustomListener:33 - ------------------TEST FINISH---------------------- 
[INFO ] 2019-06-16 13:20:21.576 CustomListener:26 - ------------------TEST START---------------------- 
[INFO ] 2019-06-16 13:20:21.594 CustomListener:27 - TEST STARTED in time: Sun Jun 16 13:20:21 EEST 2019
[INFO ] 2019-06-16 13:20:23.261 SearchApiTest:133 - ....Add file to storage must throw SoapServiceException test.....
[INFO ] 2019-06-16 13:20:23.421 CustomListener:40 -  Result : SUCCESS : addFileToStorageShouldThrowExcSoap
[INFO ] 2019-06-16 13:20:23.723 SearchApiTest:57 - ....Get all files from storage rest test.....
[INFO ] 2019-06-16 13:20:27.275 SearchApiTest:62 - Got all files from storage: [UserFile{name='Calendar', size=23, type=DOC}, UserFile{name='My planner', size=180, type=PDF}, UserFile{name='Trip-plan', size=100, type=TXT}, UserFile{name='laptop configuration', size=500, type=ODT}, UserFile{name='my birthday party menu', size=766, type=ODT}, UserFile{name='salary report', size=89, type=ODT}]
[INFO ] 2019-06-16 13:20:27.278 CustomListener:40 -  Result : SUCCESS : getAllFilesFromStorageRest
[INFO ] 2019-06-16 13:20:27.294 SearchApiTest:44 - ....Get all files from storage soap test.....
[INFO ] 2019-06-16 13:20:27.423 SearchApiTest:48 - Get all files from storage: [UserFile{name='Calendar', size=23, type=DOC}, UserFile{name='My planner', size=180, type=PDF}, UserFile{name='Trip-plan', size=100, type=TXT}, UserFile{name='laptop configuration', size=500, type=ODT}, UserFile{name='my birthday party menu', size=766, type=ODT}, UserFile{name='salary report', size=89, type=ODT}]
[INFO ] 2019-06-16 13:20:27.423 CustomListener:40 -  Result : SUCCESS : getAllFilesFromStorageSoap
[INFO ] 2019-06-16 13:20:27.431 SearchApiTest:101 - ....Search file by name test....
[INFO ] 2019-06-16 13:20:27.679 SearchApiTest:106 - Add file: UserFile{name='Validation form', size=20, type=ODT} for testing rest search methods
[INFO ] 2019-06-16 13:20:27.797 SearchApiTest:109 - File is found
[INFO ] 2019-06-16 13:20:28.017 CustomListener:40 -  Result : SUCCESS : searchByNameSoapAndRest
[INFO ] 2019-06-16 13:20:28.031 SearchApiTest:87 - ....Search files by type rest test....
[INFO ] 2019-06-16 13:20:28.081 SearchApiTest:93 - Find: 3 files with ODT type
[INFO ] 2019-06-16 13:20:28.082 CustomListener:40 -  Result : SUCCESS : searchByTypeRest
[INFO ] 2019-06-16 13:20:28.101 SearchApiTest:74 - ....Search files by type soap test...
[INFO ] 2019-06-16 13:20:28.202 SearchApiTest:80 - Find: 3 files with ODT type
[INFO ] 2019-06-16 13:20:28.203 CustomListener:40 -  Result : SUCCESS : searchByTypeSoap
[INFO ] 2019-06-16 13:20:28.229 CustomListener:40 -  Result : SUCCESS : searchNonPresentFileShouldThrowExcRest
[INFO ] 2019-06-16 13:20:28.238 SearchApiTest:124 - ....Search non present file in storage.......
[INFO ] 2019-06-16 13:20:28.350 CustomListener:40 -  Result : SUCCESS : searchNonPresentFileShouldThrowExcSoap
[INFO ] 2019-06-16 13:20:28.492 CustomListener:32 - TEST FINISHED in time: Sun Jun 16 13:20:28 EEST 2019
[INFO ] 2019-06-16 13:20:28.492 CustomListener:33 - ------------------TEST FINISH---------------------- 
[INFO ] 2019-06-16 19:48:12.863 CustomListener:26 - ------------------TEST START---------------------- 
[INFO ] 2019-06-16 19:48:12.888 CustomListener:27 - TEST STARTED in time: Sun Jun 16 19:48:12 EEST 2019
[INFO ] 2019-06-16 19:48:13.132 AddDeleteApiTest:70 - .....Add file to storage soap positive test...
[INFO ] 2019-06-16 19:48:25.771 AddDeleteApiTest:75 - Size of storage before file adding 3
[INFO ] 2019-06-16 19:48:25.810 AddDeleteApiTest:77 - Added file to storage: UserFile{name='letter to grandma', size=400, type=WKS}
[INFO ] 2019-06-16 19:48:25.844 AddDeleteApiTest:80 - Size of storage after file adding 4
[INFO ] 2019-06-16 19:48:25.893 CustomListener:40 -  Result : SUCCESS : addFileToStorageSoap
[INFO ] 2019-06-16 19:48:26.264 AddDeleteApiTest:37 - ....Try to add files with no-acceptable data....
[DEBUG] 2019-06-16 19:48:29.473 AddDeleteApiTest:47 -  File was not added, exception message: HTTP response code 406 instead of 200
[INFO ] 2019-06-16 19:48:29.492 AddDeleteApiTest:52 - Size of storage before operation: 3 = size of storage after operation 3, file with size: 1100 was not added
[INFO ] 2019-06-16 19:48:29.495 CustomListener:40 -  Result : SUCCESS : addFilesNegativeRest
[INFO ] 2019-06-16 19:48:29.515 AddDeleteApiTest:37 - ....Try to add files with no-acceptable data....
[DEBUG] 2019-06-16 19:48:29.585 AddDeleteApiTest:47 -  File was not added, exception message: HTTP response code 406 instead of 200
[INFO ] 2019-06-16 19:48:29.601 AddDeleteApiTest:52 - Size of storage before operation: 3 = size of storage after operation 3, file with size: 2100 was not added
[INFO ] 2019-06-16 19:48:29.602 CustomListener:40 -  Result : SUCCESS : addFilesNegativeRest
[INFO ] 2019-06-16 19:48:29.610 AddDeleteApiTest:37 - ....Try to add files with no-acceptable data....
[DEBUG] 2019-06-16 19:48:29.645 AddDeleteApiTest:47 -  File was not added, exception message: HTTP response code 406 instead of 200
[INFO ] 2019-06-16 19:48:29.663 AddDeleteApiTest:52 - Size of storage before operation: 3 = size of storage after operation 3, file with size: 2100 was not added
[INFO ] 2019-06-16 19:48:29.664 CustomListener:40 -  Result : SUCCESS : addFilesNegativeRest
[INFO ] 2019-06-16 19:48:29.679 AddDeleteApiTest:59 - ....Add files with acceptable data rest....
[INFO ] 2019-06-16 19:48:29.738 AddDeleteApiTest:63 - File: UserFile{name='Data types', size=860, type=DOC} was added
[INFO ] 2019-06-16 19:48:30.037 CustomListener:40 -  Result : SUCCESS : addFilesPositiveRest
[INFO ] 2019-06-16 19:48:30.053 AddDeleteApiTest:59 - ....Add files with acceptable data rest....
[INFO ] 2019-06-16 19:48:30.063 AddDeleteApiTest:63 - File: UserFile{name='Data_storage', size=60, type=PDF} was added
[INFO ] 2019-06-16 19:48:30.102 CustomListener:40 -  Result : SUCCESS : addFilesPositiveRest
[INFO ] 2019-06-16 19:48:30.109 AddDeleteApiTest:59 - ....Add files with acceptable data rest....
[INFO ] 2019-06-16 19:48:30.123 AddDeleteApiTest:63 - File: UserFile{name='MyData', size=999, type=PDF} was added
[INFO ] 2019-06-16 19:48:30.144 CustomListener:40 -  Result : SUCCESS : addFilesPositiveRest
[INFO ] 2019-06-16 19:48:30.152 AddDeleteApiTest:59 - ....Add files with acceptable data rest....
[INFO ] 2019-06-16 19:48:30.163 AddDeleteApiTest:63 - File: UserFile{name='Festivalle', size=111, type=DOC} was added
[INFO ] 2019-06-16 19:48:30.190 CustomListener:40 -  Result : SUCCESS : addFilesPositiveRest
[INFO ] 2019-06-16 19:48:30.198 AddDeleteApiTest:59 - ....Add files with acceptable data rest....
[INFO ] 2019-06-16 19:48:30.209 AddDeleteApiTest:63 - File: UserFile{name='MyDoca', size=11, type=DOC} was added
[INFO ] 2019-06-16 19:48:30.231 CustomListener:40 -  Result : SUCCESS : addFilesPositiveRest
[INFO ] 2019-06-16 19:48:30.242 AddDeleteApiTest:89 - .......Delete file from storage rest-test......
[INFO ] 2019-06-16 19:48:30.352 AddDeleteApiTest:95 - Removed file with name: Validation form
[INFO ] 2019-06-16 19:48:30.353 AddDeleteApiTest:98 - Looking for deleted file...
[INFO ] 2019-06-16 19:48:31.475 AddDeleteApiTest:102 - Response: 404 Not Found, searched file was deleted
[INFO ] 2019-06-16 19:48:31.475 CustomListener:40 -  Result : SUCCESS : deleteFileRest
[INFO ] 2019-06-16 19:48:31.484 AddDeleteApiTest:109 - ......Delete file from storage soap-test....
[INFO ] 2019-06-16 19:48:31.855 AddDeleteApiTest:115 - Removed file with name: Validation form
[INFO ] 2019-06-16 19:48:31.855 AddDeleteApiTest:118 - Looking for deleted file...
[INFO ] 2019-06-16 19:48:32.161 AddDeleteApiTest:122 - Response:  There is no file with  such name, searched file was deleted
[INFO ] 2019-06-16 19:48:32.168 CustomListener:40 -  Result : SUCCESS : deleteFileSoap
[INFO ] 2019-06-16 19:48:32.486 SearchApiTest:137 - ....Add file to storage must throw SoapServiceException test.....
[INFO ] 2019-06-16 19:48:32.540 CustomListener:40 -  Result : SUCCESS : addFileToStorageShouldThrowExcSoap
[INFO ] 2019-06-16 19:48:32.550 SearchApiTest:57 - ....Get all files from storage rest test.....
[INFO ] 2019-06-16 19:48:32.595 SearchApiTest:62 - Got all files from storage: [UserFile{name='Calendar', size=23, type=DOC}, UserFile{name='My planner', size=180, type=PDF}, UserFile{name='Trip-plan', size=100, type=TXT}, UserFile{name='laptop configuration', size=500, type=ODT}, UserFile{name='my birthday party menu', size=766, type=ODT}, UserFile{name='salary report', size=89, type=ODT}]
[INFO ] 2019-06-16 19:48:32.597 CustomListener:40 -  Result : SUCCESS : getAllFilesFromStorageRest
[INFO ] 2019-06-16 19:48:32.605 SearchApiTest:46 - ....Get all files from storage soap test.....
[INFO ] 2019-06-16 19:48:32.785 SearchApiTest:50 - Get all files from storage: [UserFile{name='Calendar', size=23, type=DOC}, UserFile{name='My planner', size=180, type=PDF}, UserFile{name='Trip-plan', size=100, type=TXT}, UserFile{name='laptop configuration', size=500, type=ODT}, UserFile{name='my birthday party menu', size=766, type=ODT}, UserFile{name='salary report', size=89, type=ODT}]
[INFO ] 2019-06-16 19:48:32.785 CustomListener:40 -  Result : SUCCESS : getAllFilesFromStorageSoap
[INFO ] 2019-06-16 19:48:32.793 SearchApiTest:102 - ....Search file by name test....
[INFO ] 2019-06-16 19:48:32.886 SearchApiTest:107 - Add file: UserFile{name='Validation form', size=20, type=ODT} for testing rest search methods
[INFO ] 2019-06-16 19:48:32.911 SearchApiTest:110 - File is found
[INFO ] 2019-06-16 19:48:32.922 CustomListener:40 -  Result : SUCCESS : searchByNameSoapAndRest
[INFO ] 2019-06-16 19:48:32.929 SearchApiTest:87 - ....Search files by type rest test....
[INFO ] 2019-06-16 19:48:32.960 SearchApiTest:93 - Find: 3 files with ODT type
[INFO ] 2019-06-16 19:48:32.961 CustomListener:40 -  Result : SUCCESS : searchByTypeRest
[INFO ] 2019-06-16 19:48:32.970 SearchApiTest:73 - ....Search files by type soap test...
[INFO ] 2019-06-16 19:48:33.109 SearchApiTest:79 - Find: 3 files with ODT type
[INFO ] 2019-06-16 19:48:33.111 CustomListener:40 -  Result : SUCCESS : searchByTypeSoap
[INFO ] 2019-06-16 19:48:33.130 CustomListener:40 -  Result : SUCCESS : searchNonPresentFileShouldThrowExcRest
[INFO ] 2019-06-16 19:48:33.138 SearchApiTest:127 - ....Search non present file in storage.......
[INFO ] 2019-06-16 19:48:33.234 CustomListener:40 -  Result : SUCCESS : searchNonPresentFileShouldThrowExcSoap
[INFO ] 2019-06-16 19:48:33.391 CustomListener:32 - TEST FINISHED in time: Sun Jun 16 19:48:33 EEST 2019
[INFO ] 2019-06-16 19:48:33.391 CustomListener:33 - ------------------TEST FINISH---------------------- 
